id;id_coursier;id_commande;adresse
1;98579;69695;connecting Exclusive mesh
2;68229;36738;background Fantastic Soft
3;24607;72720;bottom-line
4;93692;40789;Assistant transition
5;10994;99168;c
6;68770;65284;Israël
7;22624;83952;enable
8;5862;85365;la reboot des
9;1365;55612;software
10;21780;89989;Mouse Papouasie-Nouvelle-Guinée Steel
