{
  "applications": "*",
  "changelogDate": "20230331175623",
  "dto": "mapstruct",
  "embedded": false,
  "entityTableName": "client",
  "fields": [
    {
      "fieldName": "id",
      "fieldType": "Long",
      "fieldValidateRules": ["required", "unique"]
    },
    {
      "fieldName": "nom",
      "fieldType": "String"
    },
    {
      "fieldName": "prenom",
      "fieldType": "String"
    },
    {
      "fieldName": "telephone",
      "fieldType": "String",
      "fieldValidateRules": ["minlength", "maxlength"],
      "fieldValidateRulesMaxlength": "10",
      "fieldValidateRulesMinlength": "10"
    },
    {
      "fieldName": "adresse",
      "fieldType": "String",
      "fieldValidateRules": ["required"]
    }
  ],
  "fluentMethods": true,
  "jpaMetamodelFiltering": false,
  "name": "Client",
  "pagination": "no",
  "readOnly": false,
  "relationships": [
    {
      "otherEntityName": "commande",
      "otherEntityRelationshipName": "client",
      "relationshipName": "commande",
      "relationshipType": "one-to-many"
    }
  ],
  "service": "serviceClass"
}
